{
	"Name":"Nina_Nur_Hasanah",
	"Age":25,
	"Address":"Jl_H_Mukti_Komp_Buana_ciwastra_Residence_B4_Margacinta_Buah_Batu_Bandung",
	"Hobbies": [
				"Travelling", 
				"reading",
				"writing",
				"excercise"
				],
	"is_married":false,
	"list_school":[			{
				"Name":"SDN_Ngaglik_1_Batu",
				"Year_in":"2000",
				"Year_out":"2006",
				"Major":null
			},
			{
				"Name":"SMP_Negeri_1_Batu",
				"Year_in":"2006",
				"Year_out":"2009",
				"Major":null
			},
			{
				"Name":"PMD_Gontor_Putri_1_Ngawi",
				"Year_in":"2009",
				"Year_out":"2013",
				"Major":null
			},
			{
				"Name":"Muhammadiyah_Malang_University",
				"Year_in":"2014",
				"Year_out":"2018",
				"Major":"Pendidikan_Matemaatika_dan_Komputasi"
			}
			],
		"skils":[
			{
				"Skill_Name":"Correl_Draw",
				"Level":"advanced"
			},
			{
				"Skill_Name":"Miccrosoft_Office",
				"Level":"expert"
			},
			{
				"Skill_Name":"Adobe_Photoshop",
				"Level":"beginner"
			},
			{
				"Skill_Name":"Adobe_Flash",
				"Level":"beginner"
			},
			{
				"Skill_Name":"Presentation",
				"Level":"expert"
			},
			{
				"Skill_Name":"Photography",
				"Level":"advanced"
			},
			{
				"Skill_Name":"Copy_writer",
				"Level":"advanced"
			},
			{
				"Skill_Name":"Organizing",
				"Level":"advanced"
			},
			{
				"Skill_Name":"Arabic_Language",
				"Level":"beginner"
			},
			{
				"Skill_Name":"English_Language",
				"Level":"advanced"
			}
			],
	"interest_in_coding":true
			
}
